user;osition;device;x;y;z;
1;0;3;0.04302257327508696;-2.5573787353136606;-3.103920285613588;
1;0;4;-1.565122512873117;4.125494592986771;-26.415502784643085;
1;0;5;-0.5982682634321534;-3.7227227287381455;37.50812044559196;
1;1;3;0.535274585952114;-2.979897934018874;-1.775942709293898;
1;1;4;-1.767073576106469;2.53203577821043;-28.973079534354763;
1;1;5;1.103164639701519;-3.0836222815929353;27.589264165620104;
1;2;3;0.664083940779213;-3.5094726467288453;-1.4436998591775754;
1;2;4;-5.148152752096817;3.9833661426178972;-25.7856906068555;
1;2;5;2.673250553195781;-4.211020820947516;22.996021851397785;
1;3;3;2.7419469959599283;-2.1313158498232574;-5.567770977132246;
1;3;4;-3.7121201820017724;5.1979957358864946;-22.359001883516356;
1;3;5;3.5043424086431036;-3.2537185777324646;29.310547209438905;
1;4;3;0.8620713335606938;-1.1503743060768223;-4.552312750309733;
1;4;4;-2.8069145364909387;5.851325874887584;-31.576076023129822;
1;4;5;2.7449590660307246;-4.505458804964869;25.32516587048558;
1;5;3;0.11274564708255636;-1.6840291273679187;-4.011300923476179;
1;5;4;-7.331189552763898;5.521384490879618;-29.685939335865292;
1;5;5;4.602945627432194;-4.100063953836746;23.498010224901776;
1;6;3;-0.9190820858088691;0.4706169349095287;-9.083898127377626;
1;6;4;6.918194125842595;17.2523586009363;-14.55255192865094;
1;6;5;3.555008868251849;-3.9075345834426107;32.58847133017855;
1;7;3;-0.2677496383085629;2.6155398085754915;-11.095608185705855;
1;7;4;5.887766124404577;8.979951542950776;-14.141712447275173;
1;7;5;1.3731929618628946;0.8201636485767696;28.090367508134335;
1;8;3;-1.2323765363275032;0.900435684369787;-10.471687186218094;
1;8;4;-0.9723430141488705;10.056953633214402;-13.925533786835162;
1;8;5;3.143990580193541;-3.6806765001263857;24.67803423831096;
2;0;3;2.8903680271408834;-13.216812916694382;10.998476500047671;
2;0;4;-1.3021495164582535;-3.3224715550910524;0.7248688526307119;
2;0;5;14.938321134302198;8.012928074613672;3.6329793870561655;
2;1;3;4.670199716458526;-9.614586742091742;10.483432902718905;
2;1;4;-1.0970573657774232;1.212614165725715;3.326775634543303;
2;1;5;15.586476731746375;1.5261144169625702;5.875992361213612;
2;2;3;5.796190603246806;-2.808571291937108;11.147575675039823;
2;2;4;-3.4904373108701834;4.189980766183708;-1.7010007346986513;
2;2;5;14.244586358203104;5.541355335856735;9.303538901106315;
2;3;3;1.612721192845712;-0.6485022445938148;8.74537203588617;
2;3;4;4.235001326632527;1.5805600389961698;-4.688253537029068;
2;3;5;7.977833955380969;18.8831889427337;3.7608701094587946;
2;4;3;3.384126912081623;-4.901306936270859;6.433277681242554;
2;4;4;0.28563480560820254;0.5171277327933429;-4.872173785159091;
2;4;5;19.059089208222026;9.572140377668584;5.284264529163538;
2;5;3;4.245431168966444;-8.222793661190984;8.780520357489804;
2;5;4;-4.1691199056949095;-5.875744622387868;-1.8940905011688711;
2;5;5;20.458720388397253;-3.8302510356091406;9.759248158105432;
2;6;3;2.6582326120826716;0.10466844750157132;2.6101430079770966;
2;6;4;0.8286461788151342;11.218579942205059;-6.351195646541157;
2;6;5;21.218635725217588;7.866397983419795;10.119916379091535;
2;7;3;0.28560759700132543;-5.736206491710942;4.744683811723181;
2;7;4;3.6357872307457697;-0.18309559065576786;-4.345252990929183;
2;7;5;27.06405105680853;1.8558649138729284;9.051195564979137;
2;8;3;1.7611752416586293;-9.133902965029787;4.372347406312171;
2;8;4;-0.5396315620238328;2.4032167319261144;-5.698626193784032;
2;8;5;20.132392626603636;6.774776436238324;8.667819536287169;
3;0;3;0.7282163754719791;-4.736622182739681;7.629174750635377;
3;0;4;1.0668730980304222;2.5047881697054755;-1.6444128431330154;
3;0;5;0.70894161121414;-13.25944812676105;43.47910474882915;
3;1;3;0.450382338566921;-4.458480795771669;8.59538094087823;
3;1;4;-0.45720369435514496;1.7768838363214918;-4.537695265051812;
3;1;5;3.475160347735204;-8.308399521725494;36.888496459682095;
3;2;3;0.34418324576950954;-3.941398372081217;10.678433868291776;
3;2;4;1.4535974631782747;0.9562663161341648;-1.9620148385387686;
3;2;5;5.4766879096594305;-9.491137773623816;42.34245358786246;
3;3;3;-0.592241668154296;-1.2943843272808817;2.2516008020419207;
3;3;4;1.515130981983038;3.15313695195765;-2.4733915118085603;
3;3;5;5.685467891200293;-23.48179155936452;53.157768686457565;
3;4;3;1.4662779411029543;-1.934459572412788;3.8436323817431726;
3;4;4;1.7495139647984113;-0.5316217689656583;-2.5527141581162307;
3;4;5;2.3114871695717163;-19.98773952885334;45.30838966796275;
3;5;3;0.9540128444673243;-2.319483677558442;5.200295668613573;
3;5;4;3.3512694345522416;-4.442391205091515;0.23834852137747586;
3;5;5;10.565482575679201;-23.846626304910156;51.07922599153023;
3;6;3;-0.0826051654450772;1.898886331676091;-5.0274680836226135;
3;6;4;2.0925146725204646;-1.2829410357550546;-0.9457260820039256;
3;6;5;10.40491105785671;-26.39349741027037;62.58110408711826;
3;7;3;1.7539424233712138;2.135704868265219;-3.0898204355839685;
3;7;4;3.043171415881684;-0.27360968949276687;-0.9859998106205647;
3;7;5;3.8275667892315326;-27.37688413995361;53.127173913348635;
3;8;3;0.16203635927805574;-2.242023157752116;-1.1743247271648167;
3;8;4;3.116972854041818;-4.031874401565683;1.030886733723141;
3;8;5;9.122169377339544;-14.546496133268748;48.26398964010605;
4;0;3;2.226524788120737;-4.235349791270001;4.204011700075373;
4;0;4;2.1996889847345025;6.373591916931267;-5.3263234122376;
4;0;5;20.834897896057036;-22.506881353471076;10.74780409581253;
4;1;3;3.2886688792490864;-0.8782928368642258;-0.5569732062966519;
4;1;4;4.468729410692433;-3.710962319024605;-5.8434212811371;
4;1;5;12.115179722687108;-26.59566873443346;9.415899245207056;
4;2;3;-0.6986741944119732;-1.4814611860633724;-0.8579915238988042;
4;2;4;1.9427793166070648;0.04521772388486041;-4.712684685918855;
4;2;5;-9.817013030776353;-26.3125912838736;7.012801290381745;
4;3;3;3.867924892451445;1.7632818193232214;-5.129950150046;
4;3;4;3.146290063766181;0.5817568140797931;-8.132838376071232;
4;3;5;10.079461448138565;-12.716487595897194;11.708533535759704;
4;4;3;8.208868316672453;1.7935351349158373;-7.0806456438588;
4;4;4;3.2004494003591164;0.7261057716830625;-10.035613620841962;
4;4;5;17.014475589235886;-20.702254478069346;20.547011976853007;
4;5;3;0.04238888084868497;1.6432543604810754;-6.979329260485693;
4;5;4;2.013483770557372;1.772743586800293;-7.175175409443951;
4;5;5;-2.3365545387417326;-21.324117685883905;23.511764900049656;
4;6;3;3.8343635283907465;5.719625848414107;-14.121961768413541;
4;6;4;5.586928590725451;4.346974107624433;-1.7604040127428613;
4;6;5;14.474719093309487;2.885709940649291;27.165428321559926;
4;7;3;8.676095308605612;3.115689799486619;-13.570721621121983;
4;7;4;7.6318890531186;-5.021948573015807;0.5337725549488841;
4;7;5;12.672550081228975;-17.362568056361066;34.299016217895115;
4;8;3;2.533823906592357;0.33954485955894265;-14.418786351034935;
4;8;4;6.9265021107179905;-3.9895601319347365;1.868219030528259;
4;8;5;6.905523583926916;-24.255926145770847;36.63153743099136;
5;0;3;2.1211525627600056;-3.8938527360028767;14.770119407249275;
5;0;4;-0.17661038974393417;0.5666216546416503;-6.108617438516641;
5;0;5;0.14953591493611218;12.335643275814471;12.296641816665263;
5;1;3;0.9395429048510755;-3.103735849078987;16.26511820351156;
5;1;4;-1.8078411074697165;-2.442771583434299;-9.673628728497718;
5;1;5;5.428701950577275;9.0490965807113;8.250164907636934;
5;2;3;3.7617733955119044;-6.782009260860999;21.004219591888113;
5;2;4;-3.27828881819965;-0.2110798253114055;-5.173500346393012;
5;2;5;3.808692045156982;15.580497154530637;15.887006400808032;
5;3;3;0.3719462512144309;-3.576705411003163;13.326225539039466;
5;3;4;1.630669365859386;5.469819358102317;-9.275260466977368;
5;3;5;1.261684502122238;1.7733351738646097;18.249216012201284;
5;4;3;-0.3842500212332002;-3.6965671352142984;14.14637954770686;
5;4;4;-0.03607778920378579;1.0833248761834833;-5.294735177894062;
5;4;5;-0.7563873481979209;8.541277305297573;17.5684817295526;
5;5;3;3.6967341000658456;-1.8848333994786302;17.08582139834584;
5;5;4;-4.979785700419639;0.6096925751882676;-0.39538017058891706;
5;5;5;10.281316994671029;10.491232417360566;22.57234702326108;
5;6;3;0.20249341707078958;-3.73607366409933;10.238647336429281;
5;6;4;0.5843119923824585;5.057246282248753;-12.567475464044257;
5;6;5;3.243181015731385;10.778980394955417;28.892509923906154;
5;7;3;1.5795429077651832;-8.502420138129565;10.435732174582645;
5;7;4;0.5649481766243164;-0.7581611045716573;-5.4354437410062;
5;7;5;9.349020266420998;14.552782533073641;27.76506593408917;
5;8;3;5.606036612606864;-10.995775994658782;15.750302554535105;
5;8;4;-0.4002290806196659;-0.4481411918003068;-2.4093100336900886;
5;8;5;13.80290371256325;15.16662370877143;19.73887873480231;
6;0;3;0.07468828679575612;-5.051666009161846;10.367578717372838;
6;0;4;1.5317194231626887;2.8075386278042296;-10.257590065527681;
6;0;5;5.073080415606091;-2.4238833410151397;17.501581416227094;
6;1;3;-0.03017984535726964;-4.81128928755521;10.270975187979394;
6;1;4;-1.0410997267918516;2.626894527666488;-11.827419816445168;
6;1;5;7.253551945061732;-3.013792236331338;19.636041728244468;
6;2;3;1.7309969163019607;-4.1205195414391405;10.083863516771615;
6;2;4;-0.9710949652146047;2.8117228080872416;-10.698300472502277;
6;2;5;13.104728274606916;-3.8353560407664173;28.723548230007022;
6;3;3;-1.0327142809363759;0.9202114752908276;4.536659421735115;
6;3;4;2.6093010377527066;4.805031196244061;-9.702392047690726;
6;3;5;3.201000561144941;-4.479022879165659;25.600545699113265;
6;4;3;-1.0741394691939945;-2.2018767401062025;5.639798684541502;
6;4;4;-0.7916232514679391;3.018207824233222;-9.228803726464271;
6;4;5;7.09627018542587;-0.3636356902371928;32.16459338038206;
6;5;3;1.5314994060350817;-2.2651300417630926;6.9325447642546765;
6;5;4;-1.5848471966793116;3.753067580872494;-8.180112702591549;
6;5;5;12.385813150185117;-6.809766220268186;34.01078572769815;
6;6;3;-2.713411461861531;8.336379150309277;-3.2788734891839977;
6;6;4;5.056129162490802;5.8877369855207045;-10.304496103249592;
6;6;5;4.807810729702002;-6.725751624411754;34.13420562069958;
6;7;3;-1.9442436767878757;-0.9795144550639356;-1.416398414566803;
6;7;4;0.3871832821489716;4.66105620104205;-9.281179779549158;
6;7;5;10.636622483330653;-12.850086872839508;39.110566451311;
6;8;3;-0.5088425945698626;0.20143471368777244;-0.5748226791455289;
6;8;4;-0.3166511941348613;5.293102953572133;-9.11950111896313;
6;8;5;13.161818089668479;-3.314036564827867;36.430236448414334;
7;0;3;3.039766836303059;-2.0991231301274427;2.8325153868840904;
7;0;4;0.5612877147361388;1.5642753652302763;-25.99218339424867;
7;0;5;2.1356155006333384;-9.021184641968492;6.2641093794597245;
7;1;3;2.8403220195148213;-3.4020598913427347;1.2224200338156044;
7;1;4;-3.7519012400578244;0.036953864474154996;-29.97089471011523;
7;1;5;2.6876720092618402;-17.605130081819727;1.9397393799556648;
7;2;3;5.118565333120557;-1.1210922979522577;0.9372142405411792;
7;2;4;-6.215556404490107;-0.7042434900058692;-23.221003594622587;
7;2;5;-1.0407643118742762;-7.156346303874466;7.607290703546917;
7;3;3;3.2564998329529358;0.048441591805482284;-2.39936487545007;
7;3;4;10.837511384554592;-1.6632015373526972;-11.7735509563859;
7;3;5;5.239108982563668;-6.291129525400126;6.08519094881003;
7;4;3;6.683263156077723;-4.339544695557261;-2.7532170193399943;
7;4;4;1.9353097459451796;1.8270854432088375;-16.22762511696601;
7;4;5;8.965731975645353;-5.566073995743536;5.51075698422831;
7;5;3;1.3224661153138335;-0.47599054414081376;-3.651000769962688;
7;5;4;-4.627243088818254;7.110988259000928;-21.419091980764044;
7;5;5;-5.430458820510748;-5.621298786878243;8.175376822177686;
7;6;3;-2.8416002592291614;2.91354649726462;-6.218749071141423;
7;6;4;5.358062330633277;0.6327102684928034;-3.0599347087886617;
7;6;5;0.5211927134599899;4.43882370144213;16.220947410928442;
7;7;3;2.849906889175275;-4.402098459621661;-9.950461196013762;
7;7;4;4.676277739399865;-1.775816075589919;3.841926705163022;
7;7;5;7.750101120966129;4.991680032138187;11.712390135820659;
7;8;3;2.4305325238849536;4.381596351304071;-8.438635299861275;
7;8;4;-2.8556747744272966;9.611606017000407;-1.9348310543466667;
7;8;5;-4.690767936246106;-2.022828921272924;17.84256988694631;
8;0;3;1.925445695829619;-6.863205772147005;2.36485844621341;
8;0;4;0.026866805409994754;2.6157009814758854;-30.7471869402463;
8;0;5;-4.720526653733685;-2.394749672338965;26.746232348156912;
8;1;3;0.9705125294420629;-2.4163891239854163;0.5553781232303286;
8;1;4;-2.64434020590339;4.9896010019072925;-24.020712388007034;
8;1;5;3.636157738572653;3.067255219431569;27.641085585594713;
8;2;3;-0.48936841847980955;-2.553668912322756;-1.5729489959255445;
8;2;4;-3.0247378973950347;4.4563044583535785;-18.781754871598896;
8;2;5;3.7484495296952947;-1.63786343127342;32.05921268973063;
8;3;3;0.8308025428263783;0.5150126778970446;-6.517978677575815;
8;3;4;-0.2356420207003449;4.313148752725206;-22.63183568135473;
8;3;5;-0.4626358263830614;-4.327700117698255;25.589879386605485;
8;4;3;1.5890796006400065;4.31576444951036;-6.837488486952523;
8;4;4;-2.553915655567323;10.365731389572854;-21.709568769915013;
8;4;5;-5.30678560274273;-5.173512881011762;34.80982481775663;
8;5;3;-0.002647276944507837;3.6304150143138223;-7.037201123485151;
8;5;4;-2.4495496418528075;-2.2072592529132775;-18.5039082549954;
8;5;5;6.779380184888338;6.759557988152733;26.7590664560327;
8;6;3;-0.43457599797539004;5.986519384964799;-14.229960335427634;
8;6;4;6.075331595610098;4.9191280268174475;-15.998114473023026;
8;6;5;1.5075392214776975;-2.3852523927729092;37.11266872912291;
8;7;3;0.7480235511021309;5.001142941540279;-15.127976066201246;
8;7;4;-2.27591193555919;12.373286011777235;-22.105752109242243;
8;7;5;-4.254234653920575;-8.874465704496803;40.51187350152928;
8;8;3;-3.052463725912686;4.339008932693254;-13.909562395480696;
8;8;4;-1.0937412742063453;1.2468567757106146;-14.497351100148096;
8;8;5;5.101285035590343;-0.22938815222604533;35.82374076586154;
9;0;3;1.7865458165582615;-2.612979846602227;-3.702939075366846;
9;0;4;0.7231363970596274;-5.6576747322603405;-27.329159797384396;
9;0;5;1.0464555609916157;-3.9132921992482994;13.74061592291494;
9;1;3;1.3608179755262715;-1.3859054827082637;5.644925102595609;
9;1;4;-2.179699660819489;3.2353001333882085;-30.769968793997617;
9;1;5;0.44022782478527206;-1.0710875570101825;6.677383919928242;
9;2;3;1.1571957212870545;-3.157461825946384;4.717142007427464;
9;2;4;-1.0903656144495524;-2.1893333748696344;-25.517267539063344;
9;2;5;1.6174044766225657;0.6687595820820227;11.848143603678503;
9;3;3;-0.12950038550349818;-0.12138648721231032;-1.9780815784025572;
9;3;4;3.3288819953133535;-1.4423489805159664;-24.43955620862356;
9;3;5;1.557502583924875;1.4632180023473262;6.51437599495551;
9;4;3;0.41819758402353024;0.5286975002897558;0.023047606246013;
9;4;4;-2.029046743389281;3.714997092576283;-24.360781566759453;
9;4;5;0.11427299131617348;-0.9268857132512619;10.292490911856095;
9;5;3;1.050687007982219;-2.2139459057014386;1.739342676607393;
9;5;4;-1.8516278610689967;2.2309289259881835;-23.715101346933405;
9;5;5;3.4846323334584435;-1.0184490448611014;8.530940537898905;
9;6;3;0.7377877081544115;1.2391479412068507;-8.1815385833718;
9;6;4;4.485525473113515;-0.393087703634906;-21.494970370392796;
9;6;5;3.8797574059973865;-7.590007813854272;27.84135143801125;
9;7;3;-0.6963810183895047;1.2017001065602289;-3.827148319867698;
9;7;4;0.2496565802482409;-2.1553119177906974;-15.25470802145967;
9;7;5;0.06216555857024772;-1.1699379451324161;11.934853946173254;
9;8;3;-0.5613034182653025;0.06982893652600783;-1.453981543805841;
9;8;4;0.23433918154669242;-0.4366514700650633;-15.082020436476814;
9;8;5;1.2003185168322532;-0.04156949334664373;3.718071642454588;
10;0;3;4.020396423259114;-3.6982550751144716;-5.207718322926669;
10;0;4;3.960781524500164;3.072908671146716;-13.169097117468699;
10;0;5;-1.349289268327991;-1.8358584618926415;12.636242074292637;
10;1;3;0.41688672637080887;-3.1779531397099525;-1.6170509450647719;
10;1;4;-1.726195021761872;4.204529640338278;-9.777398250884236;
10;1;5;-4.280842184834349;2.298576181510171;7.662935244998564;
10;2;3;-0.9021121946031672;0.06417708343615404;-1.645650773529442;
10;2;4;-0.22184375404878973;-1.2715180194141815;0.979407325248673;
10;2;5;2.885992453436228;-1.4841861529325953;16.064837843475818;
10;3;3;3.164165237301827;3.448435090874773;-5.841974658578842;
10;3;4;3.5752172455683793;3.2922787211626887;-8.893832011170291;
10;3;5;1.541255316761514;-6.435693889176395;16.015805090900788;
10;4;3;-1.92287599698811;2.921141715859422;-7.803223435487821;
10;4;4;-0.41554111527418813;1.1831544062359909;-6.948018117143423;
10;4;5;-1.5771112502960078;-3.5759704239870436;20.913642836521678;
10;5;3;-2.4052923417252656;2.124827351982973;-6.919360553015491;
10;5;4;-5.392261863272904;4.254922089780923;-6.921959873733191;
10;5;5;2.0737730573993574;-1.4352204369538217;19.11635278202653;
10;6;3;2.5394948488899205;8.299944484064898;-13.027773190413214;
10;6;4;7.211674147118247;5.5331372707841435;-7.07517579907928;
10;6;5;2.419127512413751;-4.5235517245174695;28.20270545779468;
10;7;3;-0.2902630575918179;7.062934106244774;-11.032334683891493;
10;7;4;-0.3654214789354675;9.78312274476433;-11.849796604874005;
10;7;5;2.3052415711168925;-8.651534902071731;29.810474269745587;
10;8;3;-0.719368780932619;3.7391580506381255;-11.41039838767394;
10;8;4;-1.0187168380618918;3.0698481765035193;-5.486254590489191;
10;8;5;6.401005338455382;-6.299885604454593;27.456442593341205;
11;0;3;3.8745507542585624;-9.656562311383883;15.331998850878952;
11;0;4;0.9324781501700475;-1.129281571778116;-2.125346685460706;
11;0;5;9.54464633781283;-9.271933114064424;67.7484665840623;
11;1;3;0.9650661538129257;-7.833953067104743;14.171874420972337;
11;1;4;2.5146089662059876;-0.9404485673910337;-0.41948847793563393;
11;1;5;9.930189578309097;-8.961068523756564;63.789513457800304;
11;2;3;3.634865563740381;-5.80666155769921;13.26765082929823;
11;2;4;4.440652787494302;-1.6170901689582247;4.073906144949653;
11;2;5;13.771812793369229;-7.536624530394787;64.32447107998122;
11;3;3;2.6288110865597267;-5.251932233000525;9.286744705330175;
11;3;4;2.464752305898662;3.570578607201675;-2.5160817722447613;
11;3;5;3.5908092126739932;-16.049683386012276;65.53544049193046;
11;4;3;0.9685135711331154;-4.328606731503865;10.23340415980806;
11;4;4;0.2982649439082003;1.9609960197833298;-5.50855193991217;
11;4;5;11.626030769017481;-18.90873359322195;68.0019510680149;
11;5;3;3.003694100063957;-9.282701272288675;11.33854801148227;
11;5;4;1.4943742641017097;-1.1514314804357493;-3.7444856245001477;
11;5;5;14.616840398623994;-10.016426090663405;66.5043503340572;
11;6;3;-0.3768497414544979;-3.3784572672451096;3.396298859773615;
11;6;4;3.419893218530851;3.907878611727527;-3.091812781675197;
11;6;5;4.366485714571546;-23.76505228254171;76.6559050935195;
11;7;3;-0.5267506074419737;-9.0005151487155;4.7279729399494785;
11;7;4;0.20611436032349073;5.120161685824173;-4.6212616291687505;
11;7;5;10.714526889467928;-32.42673728550216;80.78741780853413;
11;8;3;1.6577043244946545;-7.658519806294187;4.977315894666107;
11;8;4;0.6280232372304136;2.4781912713134733;-2.226448871921958;
11;8;5;17.505306063058377;-21.89644766669472;80.43297410310379;
12;0;3;2.6524339543421207;-1.3094869909338442;-12.049666641478096;
12;0;4;10.934074799415882;3.894248448496361;-28.43984028235133;
12;0;5;-4.552153784551067;-28.522893271952675;57.30079394050532;
12;1;3;-0.5700730006454497;-3.257377419406078;-13.933296925176764;
12;1;4;2.067594893541984;3.6898248695075555;-31.426916103105142;
12;1;5;-1.5650941344354705;-30.42080750899113;50.83504210495981;
12;2;3;-0.3036910039286038;-2.9098913010044987;-12.210670537835538;
12;2;4;-1.5057529773872442;7.308625470880026;-28.65533707844667;
12;2;5;-2.939407182422516;-18.431235180175513;43.32751273922273;
12;3;3;1.5003703903448056;-0.43707935476886484;-18.99382002044187;
12;3;4;11.882562487678623;16.643287161044846;-31.151456472251574;
12;3;5;-13.160252497491822;-19.34867771671403;67.63516512895002;
12;4;3;-1.0607570978139886;-0.5606917054372366;-20.110075323123162;
12;4;4;6.704796600878312;16.18901961521955;-29.034745320014324;
12;4;5;-1.3001698910127524;-22.69147090474239;52.626190211153784;
12;5;3;-1.71720907694489;-0.5092306130498098;-19.09805979966792;
12;5;4;-0.012640813202967394;17.091828213666002;-39.36161215716568;
12;5;5;-0.5732148213455006;-25.631763399058244;53.90738613884289;
12;6;3;6.646825382561877;-3.53218063319463;-21.546029308151695;
12;6;4;-0.42270305479670833;8.33135513137819;-8.901471632328036;
12;6;5;-4.074256310787167;-28.816242454692784;91.87665805581686;
12;7;3;-0.5627215468953999;5.830159061549488;-25.25835416195948;
12;7;4;-1.2498248781189396;7.319819905634365;-9.758167492296892;
12;7;5;1.6302104558190464;-22.565314760029636;74.73753899036343;
12;8;3;-3.387574211078256;7.254737577067252;-25.904565744012682;
12;8;4;0.8185380008003766;7.897073124233342;-9.39469754431121;
12;8;5;4.591776552825094;-23.921073564253756;69.07853335695904;
13;0;3;5.807100632376841;-16.02140304221714;7.732563532831963;
13;0;4;-7.3991766714367175;2.968799810191285;30.502597776824665;
13;0;5;4.5125684333076705;-18.65501071424293;42.25720906269134;
13;1;3;-4.037405536138843;-0.8711301489718616;9.02560457357843;
13;1;4;-9.246140989520061;5.098802534665944;-14.181156769818973;
13;1;5;5.150723968735493;-13.775155277311185;40.1164301091876;
13;2;3;-0.8570980611988803;-0.9861360228725272;8.441632663931788;
13;2;4;-10.940853675738213;1.7085027557416914;-27.936376905929475;
13;2;5;12.44428088503414;1.864440171137868;39.6768176590463;
13;3;3;1.3070960167451637;-1.1897946155625507;-4.449360575384084;
13;3;4;2.5478473654863287;16.163887178363122;-38.944245913142275;
13;3;5;7.637362081895672;-13.514941985607642;46.582302471425784;
13;4;3;0.9349890140553481;-0.9627946960526077;-3.756316204216306;
13;4;4;-3.4491643773330622;10.378395462999714;-31.612737025812837;
13;4;5;6.808727085372016;-10.848224158593911;40.31345689195694;
13;5;3;4.542141057380185;-3.232435141238626;-0.48456843394248184;
13;5;4;-7.446026989501857;11.767692854435403;-24.524506632180426;
13;5;5;8.172483809363326;-6.4875067657669945;40.91378657490266;
13;6;3;3.742057092690661;12.273660897956965;-10.468942132033243;
13;6;4;6.184444071014435;21.870833350420128;-18.389011956053878;
13;6;5;12.317969269270527;-7.986398913707096;48.74012503128962;
13;7;3;-4.345784081293458;7.989831709464916;-6.749138342373507;
13;7;4;-2.19273189849423;16.926840976974173;-14.849804738502602;
13;7;5;2.8710197964129445;-4.398433754613898;42.3718081561104;
13;8;3;3.9522351705118925;8.801326055657011;-0.005337682992754278;
13;8;4;0.1552972161016073;23.519888927166562;-23.507408489006636;
13;8;5;15.248243015265498;-12.735930066725471;42.97239812061902;
14;0;3;0.5570800235014843;-13.16305572176515;14.106722084198523;
14;0;4;2.5314378691974584;-4.1766917894056075;-5.7495739908766295;
14;0;5;-1.901076470545805;1.9460015560316055;95.52042614226616;
14;1;3;-3.6029452579321846;-4.318479708980668;10.905478888684545;
14;1;4;-1.8121604506199542;-1.1940718797353531;-5.960349458940695;
14;1;5;4.9902988059689815;-0.08970426897399789;92.78451896942998;
14;2;3;0.19315148735890464;-3.5184215518689164;12.926712380619922;
14;2;4;-5.900103979221853;-4.163483039638827;0.2256358267251321;
14;2;5;6.0598489924185;3.6840483406015547;89.17488339617557;
14;3;3;-1.562722428659375;0.7120095850006827;2.3839386034021888;
14;3;4;0.5948000898112324;-5.130405846184173;-15.716029114836134;
14;3;5;7.359504311060363;-0.2242672202639503;95.70082368616818;
14;4;3;-3.3105805880545733;-0.6761152806743854;3.2351780349930883;
14;4;4;-2.364301794989709;-1.4220231565261436;-7.350730565192858;
14;4;5;2.816531887598701;2.7203461022902737;85.75012312029733;
14;5;3;1.1881540686267373;-5.558759894703762;4.936019562116336;
14;5;4;0.9729286109170366;-1.64927786953461;0.5245427363951933;
14;5;5;-0.24313649975856588;4.576528800866621;86.97153446320853;
14;6;3;2.4046946839179713;1.0816163286175713;-4.145700558352405;
14;6;4;-1.6807524578956003;7.584076843969701;2.0619018682402843;
14;6;5;6.0585463228557295;6.909044167658823;104.50931752961267;
14;7;3;1.3546092605535933;-3.3809073697319705;-0.4175762389103212;
14;7;4;0.5992346617896464;5.459454743576379;0.9624199758379063;
14;7;5;4.208384344795809;4.118001276873767;95.67324986019334;
14;8;3;-1.6447243981279653;-7.051668348962714;7.125971718327918;
14;8;4;0.9785836685588518;1.692152482162353;-1.1578438909876407;
14;8;5;2.2824145337987987;5.513647634067624;94.57475376953812;
15;0;3;-0.5725239894086336;-6.838389013758043;7.288072772650549;
15;0;4;0.8777274998648807;-6.356263459750172;1.5235548778276218;
15;0;5;-0.21494246749592924;-1.5810052042020695;14.943382208131682;
15;1;3;1.3401148842836141;-5.837375376727583;7.736646234518628;
15;1;4;-1.1133951257160084;-3.2009743632560563;-4.082715267720114;
15;1;5;1.421546318871007;-3.322908641153514;14.719678796165175;
15;2;3;-0.9318896580379664;-4.047113708232911;8.013695643820844;
15;2;4;-0.850699020572013;-3.389851530320138;-0.16723458183549594;
15;2;5;2.6901669312589656;-2.0332314076363396;16.96357499226578;
15;3;3;0.33799475406302265;-0.14683497061107817;-2.382818303196642;
15;3;4;-1.7127234384671501;2.5650475703922058;-14.016533716060836;
15;3;5;2.2229629334759586;-7.33708381609934;22.53676431651017;
15;4;3;-0.29936360227523173;1.1530772715401394;-0.013365895388327317;
15;4;4;-1.1413144603539283;0.9571410576038291;-7.7004889588598235;
15;4;5;2.65859563868992;-3.5399186194997445;20.10555426800827;
15;5;3;-0.1858090869819446;-3.864188163119473;2.2173243563165297;
15;5;4;-2.8340309844270046;2.695218291117468;-9.75204849699685;
15;5;5;6.819108513117972;-3.385017479804821;20.516836899954697;
15;6;3;0.9273964772228273;2.0926171514783527;-7.765020323854809;
15;6;4;1.612457824038193;-0.7652596934200485;-7.4334417493418234;
15;6;5;2.452181042635011;-8.775982353022716;24.873894087634767;
15;7;3;-2.4380013180527946;3.562742692662927;-4.455902561735217;
15;7;4;-0.3262128167676297;0.3300688463432908;-5.362992510085265;
15;7;5;5.955131747729375;-4.529569100402442;22.172248588339738;
15;8;3;0.2683745368348053;-1.028728447065387;-1.9822385292019788;
15;8;4;-2.0004403972031275;-0.3018601378744529;-4.162151977435952;
15;8;5;5.367079731614951;-7.228131877188611;21.361752226858457;
16;0;3;3.0289298484566336;-7.277125987288042;23.40188980681547;
16;0;4;2.615400798045224;7.648093268443516;-5.5535460716468865;
16;0;5;4.084394768866237;-20.724895789136582;64.63843283609467;
16;1;3;1.1596094120864766;-2.0905975339472795;22.84674816311976;
16;1;4;0.1820601357807503;6.57552169745007;-4.6003181690740576;
16;1;5;6.767355618261345;-14.787756307405266;55.28367963370146;
16;2;3;2.2753130076590997;-3.202899774421132;22.63121284663292;
16;2;4;-0.8437461712325622;0.7854440116160716;9.891609329311388;
16;2;5;13.412256632854874;-14.17641655739602;57.8271808530231;
16;3;3;-1.4545907789817067;-5.927742931463864;15.309318006177106;
16;3;4;2.6810269586709676;5.132532589273513;-5.199580012845292;
16;3;5;5.737684425266041;-26.704742643101188;72.54962697114175;
16;4;3;1.472318927869685;-6.566479083308606;13.874424700770508;
16;4;4;1.8723440457723606;13.60260338295867;-8.320289186226503;
16;4;5;7.331575886341996;-20.50333637238691;60.23123906520738;
16;5;3;2.74042196030424;-7.696630091974117;16.603349615256707;
16;5;4;2.8691790782571216;3.288933649784663;13.436054631648306;
16;5;5;18.610071433418337;-22.57225291850433;67.5859837569943;
16;6;3;1.0520495325704793;2.5857444011525805;8.899932529078331;
16;6;4;4.521950664696652;0.6479805914707565;-0.20289161227138042;
16;6;5;11.18431910699497;-40.14515035672841;87.54332626671982;
16;7;3;0.9014294985801004;-1.6965094872922049;12.205764350617759;
16;7;4;2.8777881906681424;1.8272285797752388;3.259829435705448;
16;7;5;6.952370806264863;-33.73103879017043;76.55401939703061;
16;8;3;4.217150914784849;-6.014608430179596;13.989202436494931;
16;8;4;-1.0371469403679345;10.230224057186238;4.919666800132779;
16;8;5;15.205977891672845;-35.00029189001212;74.79343171020933;
17;0;3;0.09623768476831529;-2.9691928858271552;10.812647329112753;
17;0;4;3.541416463831733;3.96900316489215;-12.585433735335275;
17;0;5;5.0845469895919315;-11.981822702944127;63.46196035710559;
17;1;3;-1.2187231310029976;1.0533221340211718;11.137888406948314;
17;1;4;-1.1286238418006178;1.036040208206558;-10.807708308716407;
17;1;5;12.38475932880392;-26.465768050792303;65.2057283193383;
17;2;3;3.914446658592315;0.45739058768222457;11.848420240091372;
17;2;4;5.287696516689036;1.1257087759652786;-2.8164146828011156;
17;2;5;16.23090168279763;-14.900181815623135;71.75475971568324;
17;3;3;-0.988637920255391;0.7262343499188533;6.974181345166459;
17;3;4;7.232344036238859;-2.703790749427411;-1.8325470167527664;
17;3;5;-3.0875932207976464;-21.93630607118115;74.14348397090905;
17;4;3;0.2148382279364498;-0.8056698281645754;9.815347624418482;
17;4;4;2.062723774591385;0.2944216093809797;1.0371778628326587;
17;4;5;11.028052460341069;-27.578090791514317;73.59736658980704;
17;5;3;1.1720202269273592;-0.6694321246790146;7.393390390480537;
17;5;4;4.557437394227276;-2.0424696768421713;1.5912066037193706;
17;5;5;21.786655673836368;-14.42749016327974;67.50737498693626;
17;6;3;-0.772470071477189;0.5884010442334185;1.495295856027638;
17;6;4;3.728128101152405;1.6424322961926843;2.992311796077212;
17;6;5;4.21574843949845;-33.825988725759345;77.40307210473561;
17;7;3;-0.8022138129502504;1.5365549448517308;2.6634501087259306;
17;7;4;2.617144579064185;1.0328840845406595;-1.566106072316976;
17;7;5;11.990077541564311;-31.254715105652377;75.5816055598638;
17;8;3;1.136589314956824;-1.61012484440759;1.3642601470215405;
17;8;4;-0.3115348109548164;1.9515104147001447;-4.55451427494906;
17;8;5;25.49675095813162;-22.857600806572634;71.33840592254192;
18;0;3;0.12590276600646022;-6.599340526779411;7.939124884313831;
18;0;4;0.12262269376817375;-1.7132168222895412;-9.093605732600667;
18;0;5;20.33467871313902;-6.762635196080891;88.53156609013733;
18;1;3;0.8200203982898686;-6.785220774314033;11.589457954966361;
18;1;4;-0.540506611852986;0.755010069978108;-5.496525136823805;
18;1;5;23.032067722768062;-5.998790236772063;85.56140492062947;
18;2;3;0.7115201930459323;-6.752366974127933;14.510326662296512;
18;2;4;42.939475345018444;-40.483499126237156;83.54830842130126;
18;2;5;34.95467770996799;-5.861581649734918;86.46197136072327;
18;3;3;-1.455548470649716;-0.8276157501013441;4.406315230504512;
18;3;4;3.664725815866088;0.6008977839943981;-10.597716583628538;
18;3;5;20.226934337230155;-1.0273678508663022;90.10617830938081;
18;4;3;1.2393871182853968;-6.215477717307617;7.929960118366421;
18;4;4;-1.2405986687680943;5.665570195783815;-5.891484549961326;
18;4;5;25.242666554414356;-1.3640452934371488;88.4012853939248;
18;5;3;1.557376784004894;-6.082657251298358;11.53405557654101;
18;5;4;-1.8039640737487166;-3.059328374919759;-5.123002906508439;
18;5;5;34.29371973966616;-9.72860164135395;89.50549874564132;
18;6;3;0.34468267731971547;2.7426955501258474;0.6330682649995066;
18;6;4;5.633727670174801;4.122612319137712;-4.067292454231535;
18;6;5;17.129090464843955;-14.019824693187669;94.03058924751925;
18;7;3;-1.5957818493456224;-2.2895364847631265;4.322353026121057;
18;7;4;0.8915793406433201;6.7411185743263955;-7.197101165762059;
18;7;5;24.962611023588913;-6.602172429768484;98.63664026521741;
18;8;3;-0.218023802245348;-4.628793298364393;7.562566190601378;
18;8;4;0.6958976629909112;-2.5831588809572916;-4.570174869262601;
18;8;5;39.67630161205961;-12.74136553857792;101.91672683807298;
19;0;3;3.3305975392565133;-7.289748707057341;14.572683598428481;
19;0;4;11.774636866058874;-6.65299661604695;20.174109338033297;
19;0;5;6.8427338027420355;-8.433972177794342;25.784890643961337;
19;1;3;0.4562433644687278;-4.82676561143583;11.786385967145641;
19;1;4;10.019957020100113;-3.871060845608516;12.74712760140945;
19;1;5;3.39238581880766;-4.229030633684367;17.772989846363508;
19;2;3;-0.7769217352098101;-4.38863361106564;10.134710712620963;
19;2;4;9.32495039403646;-0.7061874443418519;11.78307794237976;
19;2;5;6.143925623755594;-1.461783741698766;16.43545356554798;
19;3;3;0.4504848816683733;-7.235517320152926;7.91209998087852;
19;3;4;-1.6401194748283887;-1.3311173417055242;0.6274446071116582;
19;3;5;2.71688145038432;-3.946895315779231;19.94786018545189;
19;4;3;-1.4288010882014195;-5.386514217542581;5.126490861058363;
19;4;4;9.161311629473628;-8.54831050044931;19.08252645978577;
19;4;5;1.457687208558236;-2.192763643285968;16.640271056094377;
19;5;3;0.24782261061492772;1.1268486479356299;3.5808993846523665;
19;5;4;2.9077742187537914;-2.6056367810392755;10.665039707642189;
19;5;5;-2.8543824341842816;-1.685581650976763;14.842348052744253;
19;6;3;4.068317406507645;-0.9795533930810779;1.4266063218173703;
19;6;4;3.6953404487548758;-0.1804918726916096;12.62953660257749;
19;6;5;5.935223192350875;-0.2657857926957016;23.794989155859515;
19;7;3;0.6235902534416354;0.6035198556089252;0.7571759242910576;
19;7;4;3.3929965109373175;-3.1788561594452247;15.863280226492765;
19;7;5;5.3125906101389075;4.576994944069567;26.172915102595383;
19;8;3;-0.0225357747240984;3.023818988819462;-2.6933369989303584;
19;8;4;3.4188905405317227;-7.86780275282256;12.661118084298325;
19;8;5;0.5591626921173778;-1.7277041166728178;23.78534744968344;
20;0;3;-1.5881385098370906;-14.314340073224797;45.06939549383555;
20;0;4;0.6004402020070996;-6.270161860061717;5.7193948060815485;
20;0;5;-3.8828664389108294;-10.205917952806443;41.44021961252266;
20;1;3;2.9080350363598804;-15.18341400481823;44.92813005678952;
20;1;4;-3.178187209408401;7.950677720220933;-8.826422032220004;
20;1;5;-0.15576248100588064;-7.1849514247001345;37.58982134326489;
20;2;3;5.8359769241712325;-13.56551443373637;43.6529444374692;
20;2;4;-2.1555373146001884;2.1788162067543144;-3.8691633911682555;
20;2;5;2.6941189330002686;-11.783890990901993;42.20061100213372;
20;3;3;-2.2360207620020187;-17.367372755292582;40.9801312564983;
20;3;4;0.4538571827108652;2.753821099243474;2.974815682983437;
20;3;5;-3.7152735320640624;-26.24475506753755;58.234800861292676;
20;4;3;3.4840345615308657;-11.66629884117411;43.59050026001203;
20;4;4;-1.2931358287795556;-8.102600004398246;13.57702339300686;
20;4;5;-2.7470142024892437;-13.62622964037553;46.384198417508046;
20;5;3;6.228706075985107;-17.670192810570647;43.197419797745404;
20;5;4;-1.2091323568750436;-2.5484560694743834;5.651913522997312;
20;5;5;0.4824571948076346;-14.207683827337261;46.96411097335676;
20;6;3;1.1765813775349905;-10.857585076696779;38.18108055516343;
20;6;4;2.9928199175616803;-6.20244398684079;8.461829433932229;
20;6;5;-9.225051386561113;-39.646044473583224;76.44194990602774;
20;7;3;3.498193259451023;-9.561279968333793;38.997619450432715;
20;7;4;-0.08792908869051974;-10.997229279586971;10.922053190934605;
20;7;5;-2.986028888451889;-26.267835049379336;68.59651708225715;
20;8;3;5.880796585408273;-10.449146962763523;40.293226244075534;
20;8;4;0.1892015759463952;-0.3414357671535861;9.516662779572012;
20;8;5;2.3430202227071675;-23.49109535927243;66.09634366047851;
